{
  "extends": "tslint-config-airbnb",
  "rules": {
    "no-unused-variable": true,
    "quotemark": [true, "single", "avoid-escape"],
    "trailing-comma": [
        true,
        {
            "multiline": "never",
            "singleline": "never"
        }
    ],
    "ordered-imports": false,
    "object-literal-sort-keys": false,
    "interface-name": false
  }
}